FormulaId	DocumentId	PageId	FormulaRegionId	VisualId	MinX	MinY	MaxX	MaxY	Location	Latex	formula_vector
49	A00-3007	1	1	44	1828	1270	1913	1298	/home/rlaz/reorg/MathSeer-extraction-pipeline/modules/qdgga/A00-3007.pdf	x	
50	A00-3007	1	3	45	1659	2294	1744	2321	/home/rlaz/reorg/MathSeer-extraction-pipeline/modules/qdgga/A00-3007.pdf	m f Z	
51	A00-3007	2	1	46	673	308	1496	396	/home/rlaz/reorg/MathSeer-extraction-pipeline/modules/qdgga/A00-3007.pdf	w t α π - ∞ i \&ast R ˜	
52	A00-3007	2	2	47	1598	593	1645	619	/home/rlaz/reorg/MathSeer-extraction-pipeline/modules/qdgga/A00-3007.pdf	α 1 \&leqq	
53	A00-3007	2	4	48	1424	908	1967	943	/home/rlaz/reorg/MathSeer-extraction-pipeline/modules/qdgga/A00-3007.pdf	f x s \&approx H i hat i	
54	A00-3007	2	5	49	1230	953	1677	989	/home/rlaz/reorg/MathSeer-extraction-pipeline/modules/qdgga/A00-3007.pdf	"( w
x p ˜ ( S 4"	
55	A00-3007	2	6	50	1425	998	1611	1033	/home/rlaz/reorg/MathSeer-extraction-pipeline/modules/qdgga/A00-3007.pdf	b α M ε C ′	
56	A00-3007	2	7	51	795	1000	881	1028	/home/rlaz/reorg/MathSeer-extraction-pipeline/modules/qdgga/A00-3007.pdf	1 α z t ′	
57	A00-3007	2	10	52	818	1449	967	1483	/home/rlaz/reorg/MathSeer-extraction-pipeline/modules/qdgga/A00-3007.pdf	"ε Y i
\textbackslash\textbackslash vert"	
58	A00-3007	2	11	53	1239	1489	1861	1575	/home/rlaz/reorg/MathSeer-extraction-pipeline/modules/qdgga/A00-3007.pdf	"P ( m s ε ) × ( 1 - ∏
\ldots{} ∞ ( - P ( Y i i \textbackslash\textbackslash vert S p ε 4 ) )"	
59	A00-3007	2	12	54	1762	1680	1897	1715	/home/rlaz/reorg/MathSeer-extraction-pipeline/modules/qdgga/A00-3007.pdf	m t	
60	A00-3007	2	13	55	1232	1726	1415	1761	/home/rlaz/reorg/MathSeer-extraction-pipeline/modules/qdgga/A00-3007.pdf	C 1 S m e	
61	A00-3007	2	14	56	1712	1770	1909	1805	/home/rlaz/reorg/MathSeer-extraction-pipeline/modules/qdgga/A00-3007.pdf	∂ ( m i 1 ε	
62	A00-3007	2	15	57	607	2610	845	2643	/home/rlaz/reorg/MathSeer-extraction-pipeline/modules/qdgga/A00-3007.pdf	S m M	
63	A00-3007	2	16	57	607	2610	843	2643	/home/rlaz/reorg/MathSeer-extraction-pipeline/modules/qdgga/A00-3007.pdf	S m M	
64	A00-3007	3	1	58	301	592	444	628	/home/rlaz/reorg/MathSeer-extraction-pipeline/modules/qdgga/A00-3007.pdf	i α V i	
65	A00-3007	3	2	59	1264	867	1681	985	/home/rlaz/reorg/MathSeer-extraction-pipeline/modules/qdgga/A00-3007.pdf	"( v
\textbackslash\textbackslash vert \textbackslash\textbackslash vert s )
= = i 1 ∏ ∑ , φ M \textbackslash\textbackslash vert w
\textbackslash\textbackslash vert x {]}"	
66	A00-3007	3	3	60	1372	1013	1407	1037	/home/rlaz/reorg/MathSeer-extraction-pipeline/modules/qdgga/A00-3007.pdf	λ	
67	A00-3007	3	4	61	1138	1050	1265	1083	/home/rlaz/reorg/MathSeer-extraction-pipeline/modules/qdgga/A00-3007.pdf	r 3 k	
68	A00-3007	3	5	62	1266	1186	1698	1309	/home/rlaz/reorg/MathSeer-extraction-pipeline/modules/qdgga/A00-3007.pdf	∑ P u i i ) = = l ∑ - r , r M ( w M = σ	
69	A00-3007	3	6	63	1177	1917	1285	1948	/home/rlaz/reorg/MathSeer-extraction-pipeline/modules/qdgga/A00-3007.pdf	H	
70	A00-3007	3	7	64	699	2266	730	2289	/home/rlaz/reorg/MathSeer-extraction-pipeline/modules/qdgga/A00-3007.pdf	n	
71	A00-3007	3	8	65	818	2300	928	2332	/home/rlaz/reorg/MathSeer-extraction-pipeline/modules/qdgga/A00-3007.pdf	c 1 k X )	
72	A00-3007	3	9	66	833	2342	1024	2374	/home/rlaz/reorg/MathSeer-extraction-pipeline/modules/qdgga/A00-3007.pdf	. ( 1 x ) )	
73	A00-3007	3	10	67	576	2384	829	2417	/home/rlaz/reorg/MathSeer-extraction-pipeline/modules/qdgga/A00-3007.pdf	m L i	
74	A00-3007	3	11	68	708	2427	779	2458	/home/rlaz/reorg/MathSeer-extraction-pipeline/modules/qdgga/A00-3007.pdf	"ε d ) ε ( t ∞ d w ) \textbackslash\textbackslash vert
x )"	
75	A00-3007	3	13	69	1406	2508	1627	2541	/home/rlaz/reorg/MathSeer-extraction-pipeline/modules/qdgga/A00-3007.pdf	m t H ( χ )	
76	A00-3007	3	14	70	824	2595	1397	2628	/home/rlaz/reorg/MathSeer-extraction-pipeline/modules/qdgga/A00-3007.pdf	D Λ m \ldots{} i s r e i a i	
77	A00-3007	4	1	71	434	656	572	696	/home/rlaz/reorg/MathSeer-extraction-pipeline/modules/qdgga/A00-3007.pdf	α 1 ;	
78	A00-3007	4	2	72	700	1526	844	1557	/home/rlaz/reorg/MathSeer-extraction-pipeline/modules/qdgga/A00-3007.pdf	r N ε M	
79	A00-3007	4	3	73	1618	1926	1736	1954	/home/rlaz/reorg/MathSeer-extraction-pipeline/modules/qdgga/A00-3007.pdf	α ≠ 0	
80	A00-3007	4	4	74	1558	2376	1693	2410	/home/rlaz/reorg/MathSeer-extraction-pipeline/modules/qdgga/A00-3007.pdf	κ -	
81	A00-3007	4	5	63	1610	2465	1770	2500	/home/rlaz/reorg/MathSeer-extraction-pipeline/modules/qdgga/A00-3007.pdf	H	
82	A00-3007	5	1	75	842	296	1436	384	/home/rlaz/reorg/MathSeer-extraction-pipeline/modules/qdgga/A00-3007.pdf	g a C {[} C 2 Γ W α 3 D 2 2 + - M	
83	A00-3007	5	2	76	1251	377	1377	402	/home/rlaz/reorg/MathSeer-extraction-pipeline/modules/qdgga/A00-3007.pdf	Ω - 7 ; \&colon	
84	A00-3007	5	3	77	1251	377	1369	402	/home/rlaz/reorg/MathSeer-extraction-pipeline/modules/qdgga/A00-3007.pdf	Ω . 7	
85	A00-3007	5	4	78	1799	457	1938	489	/home/rlaz/reorg/MathSeer-extraction-pipeline/modules/qdgga/A00-3007.pdf	T E \&subset \ldots{}	
86	A00-3007	5	5	78	1799	458	1938	489	/home/rlaz/reorg/MathSeer-extraction-pipeline/modules/qdgga/A00-3007.pdf	T E \&subset \ldots{}	
87	A00-3007	5	6	63	1603	792	1699	825	/home/rlaz/reorg/MathSeer-extraction-pipeline/modules/qdgga/A00-3007.pdf	H	
88	A00-3007	5	7	79	826	811	1017	845	/home/rlaz/reorg/MathSeer-extraction-pipeline/modules/qdgga/A00-3007.pdf	Y M C R	
89	A00-3007	5	8	80	829	1228	1022	1259	/home/rlaz/reorg/MathSeer-extraction-pipeline/modules/qdgga/A00-3007.pdf	M - k	
90	A00-3007	5	9	81	776	1561	823	1587	/home/rlaz/reorg/MathSeer-extraction-pipeline/modules/qdgga/A00-3007.pdf	- ∞ 7 Y a 3	
91	A00-3007	5	11	82	1426	1792	1576	1824	/home/rlaz/reorg/MathSeer-extraction-pipeline/modules/qdgga/A00-3007.pdf	a V	
92	A00-3007	5	13	83	1255	1916	1319	1942	/home/rlaz/reorg/MathSeer-extraction-pipeline/modules/qdgga/A00-3007.pdf	X	
93	A00-3007	5	12	84	878	1852	1019	1884	/home/rlaz/reorg/MathSeer-extraction-pipeline/modules/qdgga/A00-3007.pdf	α - 3	
94	A00-3007	5	15	63	787	2060	903	2084	/home/rlaz/reorg/MathSeer-extraction-pipeline/modules/qdgga/A00-3007.pdf	H	
95	A00-3007	5	16	85	882	2224	1023	2257	/home/rlaz/reorg/MathSeer-extraction-pipeline/modules/qdgga/A00-3007.pdf	a .	
96	A00-3007	5	17	86	442	2554	643	2581	/home/rlaz/reorg/MathSeer-extraction-pipeline/modules/qdgga/A00-3007.pdf	M	
